…
Anything else we have yet to deal with
--------------------------------------

    ## $data
    ## # A tibble: 109,805 x 19
    ##    area  districtName fisheryName fishCode  year gearTypeID permitTypeName
    ##    <chr> <chr>        <chr>       <chr>    <int>      <int> <chr>         
    ##  1 West~ AK Pen/Aleu~ Adak Distr~ AD        1988          0 Personal Use  
    ##  2 West~ AK Pen/Aleu~ Adak Distr~ AD        1989          0 Personal Use  
    ##  3 West~ AK Pen/Aleu~ Adak Distr~ AD        1990          0 Personal Use  
    ##  4 West~ AK Pen/Aleu~ Adak Distr~ AD        1991          0 Personal Use  
    ##  5 West~ AK Pen/Aleu~ Adak Distr~ AD        1992          0 Personal Use  
    ##  6 West~ AK Pen/Aleu~ Adak Distr~ AD        1993          0 Personal Use  
    ##  7 West~ AK Pen/Aleu~ Adak Distr~ AD        1995          0 Personal Use  
    ##  8 West~ AK Pen/Aleu~ Adak Distr~ AD        1996          0 Personal Use  
    ##  9 West~ AK Pen/Aleu~ Adak Distr~ AD        1997          0 Personal Use  
    ## 10 West~ AK Pen/Aleu~ Adak Distr~ AD        1998          0 Subsistence   
    ## # ... with 109,795 more rows, and 12 more variables: commname <chr>,
    ## #   returned <int>, issued <int>, species <chr>, amount <dbl>, mean <dbl>,
    ## #   pounds <dbl>, USGS_name <chr>, lat <dbl>, lng <dbl>, region_id <int>,
    ## #   region <chr>
    ## 
    ## $attribute_metadata
…
